%YAML 1.1
%TAG !u! tag:unity3d.com,2011:
--- !u!114 &11400000
MonoBehaviour:
  m_ObjectHideFlags: 0
  m_CorrespondingSourceObject: {fileID: 0}
  m_PrefabInstance: {fileID: 0}
  m_PrefabAsset: {fileID: 0}
  m_GameObject: {fileID: 0}
  m_Enabled: 1
  m_EditorHideFlags: 0
  m_Script: {fileID: 11500000, guid: 18d5dffe8e33ec347b47057edaeb79e1, type: 3}
  m_Name: New Item
  m_EditorClassIdentifier: 
  m_NameItem: 
  m_Sprite: {fileID: 0}
  m_Type: 0
  m_Size: 0
  m_FirstTime: 0
