%YAML 1.1
%TAG !u! tag:unity3d.com,2011:
--- !u!114 &11400000
MonoBehaviour:
  m_ObjectHideFlags: 0
  m_CorrespondingSourceObject: {fileID: 0}
  m_PrefabInstance: {fileID: 0}
  m_PrefabAsset: {fileID: 0}
  m_GameObject: {fileID: 0}
  m_Enabled: 1
  m_EditorHideFlags: 0
  m_Script: {fileID: 11500000, guid: 011a3837e1897d24fa79b11864895c07, type: 3}
  m_Name: Salty Cod
  m_EditorClassIdentifier: 
  m_LootID: FI1
  m_LootName: Fish
  m_LootDes: Salty Cod
  m_LootImage: {fileID: 21300000, guid: 3690f521617c28e47857a0feb5b41870, type: 3}
  m_Rarity: 0
  m_Type: 2
  m_Size: 0
  m_Price: 20
