%YAML 1.1
%TAG !u! tag:unity3d.com,2011:
--- !u!114 &11400000
MonoBehaviour:
  m_ObjectHideFlags: 0
  m_CorrespondingSourceObject: {fileID: 0}
  m_PrefabInstance: {fileID: 0}
  m_PrefabAsset: {fileID: 0}
  m_GameObject: {fileID: 0}
  m_Enabled: 1
  m_EditorHideFlags: 0
  m_Script: {fileID: 11500000, guid: 45bcebdbb1e65ab498b27ee38d1bdcd9, type: 3}
  m_Name: BaitLevel
  m_EditorClassIdentifier: 
  m_BuffID: 
  m_AffectedAttributes:
  - m_Attribute:
    - m_AttributeType: 17
      m_Amount: 1
    - m_AttributeType: 17
      m_Amount: 2
    - m_AttributeType: 17
      m_Amount: 3
  m_Duration: -1
