%YAML 1.1
%TAG !u! tag:unity3d.com,2011:
--- !u!114 &11400000
MonoBehaviour:
  m_ObjectHideFlags: 0
  m_CorrespondingSourceObject: {fileID: 0}
  m_PrefabInstance: {fileID: 0}
  m_PrefabAsset: {fileID: 0}
  m_GameObject: {fileID: 0}
  m_Enabled: 1
  m_EditorHideFlags: 0
  m_Script: {fileID: 11500000, guid: 45bcebdbb1e65ab498b27ee38d1bdcd9, type: 3}
  m_Name: QuickReel
  m_EditorClassIdentifier: 
  m_BuffID: FI1
  m_AffectedAttributes:
  - m_Attribute:
    - m_AttributeType: 29
      m_Amount: 5
  - m_Attribute:
    - m_AttributeType: 29
      m_Amount: 8
  - m_Attribute:
    - m_AttributeType: 29
      m_Amount: 10
  - m_Attribute:
    - m_AttributeType: 29
      m_Amount: 13
  - m_Attribute:
    - m_AttributeType: 29
      m_Amount: 15
  m_Duration: 10
