%YAML 1.1
%TAG !u! tag:unity3d.com,2011:
--- !u!114 &11400000
MonoBehaviour:
  m_ObjectHideFlags: 0
  m_CorrespondingSourceObject: {fileID: 0}
  m_PrefabInstance: {fileID: 0}
  m_PrefabAsset: {fileID: 0}
  m_GameObject: {fileID: 0}
  m_Enabled: 1
  m_EditorHideFlags: 0
  m_Script: {fileID: 11500000, guid: b8b809991298b3e4b843f73153fd14aa, type: 3}
  m_Name: WoodenJack
  m_EditorClassIdentifier: 
  m_SkillName: WoodenJack
  m_SkillID: C1
  m_SkillEffect: {fileID: 8490358458239060542, guid: 590ddcd21115c4146a79bf6a9c8ea0f7, type: 3}
  m_Cooldown: 1
