%YAML 1.1
%TAG !u! tag:unity3d.com,2011:
--- !u!114 &11400000
MonoBehaviour:
  m_ObjectHideFlags: 0
  m_CorrespondingSourceObject: {fileID: 0}
  m_PrefabInstance: {fileID: 0}
  m_PrefabAsset: {fileID: 0}
  m_GameObject: {fileID: 0}
  m_Enabled: 1
  m_EditorHideFlags: 0
  m_Script: {fileID: 11500000, guid: 011a3837e1897d24fa79b11864895c07, type: 3}
  m_Name: Toast
  m_EditorClassIdentifier: 
  m_LootID: B24
  m_LootName: Toast
  m_LootDes: 
  m_LootImage: {fileID: 21300000, guid: ebd50d38138a1cd4c8c8ee19a153f44d, type: 3}
  m_Rarity: 4
  m_Type: 4
  m_Size: 0
  m_Price: 20
