%YAML 1.1
%TAG !u! tag:unity3d.com,2011:
--- !u!114 &11400000
MonoBehaviour:
  m_ObjectHideFlags: 0
  m_CorrespondingSourceObject: {fileID: 0}
  m_PrefabInstance: {fileID: 0}
  m_PrefabAsset: {fileID: 0}
  m_GameObject: {fileID: 0}
  m_Enabled: 1
  m_EditorHideFlags: 0
  m_Script: {fileID: 11500000, guid: 011a3837e1897d24fa79b11864895c07, type: 3}
  m_Name: Ebony Plank
  m_EditorClassIdentifier: 
  m_LootID: C13
  m_LootName: Ebony Plank
  m_LootDes: Ebony Plank
  m_LootImage: {fileID: 21300000, guid: a6653a4a9504dcd4ba745ea8829d43a9, type: 3}
  m_Rarity: 3
  m_Type: 1
  m_Size: 0
  m_Price: 20
