%YAML 1.1
%TAG !u! tag:unity3d.com,2011:
--- !u!1 &7764593190485601065
GameObject:
  m_ObjectHideFlags: 0
  m_CorrespondingSourceObject: {fileID: 0}
  m_PrefabInstance: {fileID: 0}
  m_PrefabAsset: {fileID: 0}
  serializedVersion: 6
  m_Component:
  - component: {fileID: 7764593190485601067}
  - component: {fileID: 7764593190485601064}
  m_Layer: 0
  m_Name: Farming_Manager
  m_TagString: Untagged
  m_Icon: {fileID: 0}
  m_NavMeshLayer: 0
  m_StaticEditorFlags: 0
  m_IsActive: 1
--- !u!4 &7764593190485601067
Transform:
  m_ObjectHideFlags: 0
  m_CorrespondingSourceObject: {fileID: 0}
  m_PrefabInstance: {fileID: 0}
  m_PrefabAsset: {fileID: 0}
  m_GameObject: {fileID: 7764593190485601065}
  m_LocalRotation: {x: 0, y: 0, z: 0, w: 1}
  m_LocalPosition: {x: 381.35193, y: 862.4716, z: 59.385754}
  m_LocalScale: {x: 1, y: 1, z: 1}
  m_Children: []
  m_Father: {fileID: 0}
  m_RootOrder: 0
  m_LocalEulerAnglesHint: {x: 0, y: 0, z: 0}
--- !u!114 &7764593190485601064
MonoBehaviour:
  m_ObjectHideFlags: 0
  m_CorrespondingSourceObject: {fileID: 0}
  m_PrefabInstance: {fileID: 0}
  m_PrefabAsset: {fileID: 0}
  m_GameObject: {fileID: 7764593190485601065}
  m_Enabled: 1
  m_EditorHideFlags: 0
  m_Script: {fileID: 11500000, guid: a063b278c2719734c8b8348fb8aa5100, type: 3}
  m_Name: 
  m_EditorClassIdentifier: 
  m_Mastery:
    m_MasteryName: 04
    m_Skills:
    - m_Level: 0
      m_RequiredLevel: 64000000fa000000f4010000bc020000
      m_SkillData: {fileID: 11400000, guid: ac57923e1b549df479a3b06cd07c47cf, type: 2}
    - m_Level: 0
      m_RequiredLevel: 3200000064000000fa000000f4010000e8030000
      m_SkillData: {fileID: 11400000, guid: 3eb5af92875363f42a13d1d0340c4b6e, type: 2}
    - m_Level: 0
      m_RequiredLevel: 4b000000fa000000ee020000e2040000
      m_SkillData: {fileID: 11400000, guid: 3e6d662c2a32a7e418101f0bcbd3f46d, type: 2}
    m_MasteryTypes: 01000000
    m_Level: 1
    m_Experience: 0
    m_RequiredExp: 1000
  m_Tools:
  - m_ToolsID: 04
    m_ToolsBuff: {fileID: 11400000, guid: 4bc33bb7fadb8aa40af1161264467ad7, type: 2}
    m_RequiredGold:
    - 2500
    - 2500
    - 2500
    - 2500
    m_Level: 0
  m_LootDrops: []
