%YAML 1.1
%TAG !u! tag:unity3d.com,2011:
--- !u!114 &11400000
MonoBehaviour:
  m_ObjectHideFlags: 0
  m_CorrespondingSourceObject: {fileID: 0}
  m_PrefabInstance: {fileID: 0}
  m_PrefabAsset: {fileID: 0}
  m_GameObject: {fileID: 0}
  m_Enabled: 1
  m_EditorHideFlags: 0
  m_Script: {fileID: 11500000, guid: 011a3837e1897d24fa79b11864895c07, type: 3}
  m_Name: Nice
  m_EditorClassIdentifier: 
  m_LootID: FA6
  m_LootName: Nice
  m_LootDes: Nice
  m_LootImage: {fileID: 21300000, guid: a8b33e44a2d0df04fa059c9232aa5692, type: 3}
  m_Rarity: 2
  m_Type: 3
  m_Size: 0
  m_Price: 20
