%YAML 1.1
%TAG !u! tag:unity3d.com,2011:
--- !u!114 &11400000
MonoBehaviour:
  m_ObjectHideFlags: 0
  m_CorrespondingSourceObject: {fileID: 0}
  m_PrefabInstance: {fileID: 0}
  m_PrefabAsset: {fileID: 0}
  m_GameObject: {fileID: 0}
  m_Enabled: 1
  m_EditorHideFlags: 0
  m_Script: {fileID: 11500000, guid: b06a68e9cbd5220479298626aaefd5ba, type: 3}
  m_Name: Active Skill
  m_EditorClassIdentifier: 
  m_SkillName: UP STR
  m_SkillID: S02
  m_SkillEffect: {fileID: 2110826421063329978, guid: a1f6af607f1dfb041898ac621df31c67, type: 3}
  m_Cooldown: 50
