%YAML 1.1
%TAG !u! tag:unity3d.com,2011:
--- !u!114 &11400000
MonoBehaviour:
  m_ObjectHideFlags: 0
  m_CorrespondingSourceObject: {fileID: 0}
  m_PrefabInstance: {fileID: 0}
  m_PrefabAsset: {fileID: 0}
  m_GameObject: {fileID: 0}
  m_Enabled: 1
  m_EditorHideFlags: 0
  m_Script: {fileID: 11500000, guid: b8b809991298b3e4b843f73153fd14aa, type: 3}
  m_Name: Critical_Act
  m_EditorClassIdentifier: 
  m_SkillName: Critical Hit
  m_SkillID: M4
  m_SkillEffect: {fileID: 5228287980143975841, guid: 3e022cbeb46150146bc4a4cd4f8933ee, type: 3}
  m_Cooldown: 1
